…
    ## `summarise()` has grouped output by 'store'. You can override using the
    ## `.groups` argument.

``` r
summary_train <- summary_train[!is.na(summary_train$Average_MAPE_Train), ]
summary_train <- summary_train[summary_train$Average_MAPE_Train <= 1, ]

summary_train
```

    ## # A tibble: 500 × 3
    ## # Groups:   store [10]
    ##    store item  Average_MAPE_Train
    ##    <fct> <fct>              <dbl>
    ##  1 1     1                  0.789
    ##  2 1     2                  0.887
    ##  3 1     3                  0.847
    ##  4 1     4                  0.777
    ##  5 1     5                  0.746
    ##  6 1     6                  0.886
    ##  7 1     7                  0.882
    ##  8 1     8                  0.905
    ##  9 1     9                  0.876
    ## 10 1     10                 0.898
    ## # … with 490 more rows
…
    ## `summarise()` has grouped output by 'store'. You can override using the
    ## `.groups` argument.

``` r
summary_test <- summary_test[!is.na(summary_test$Average_MAPE_Test), ]
summary_test <- summary_test[summary_test$Average_MAPE_Test <= 1, ]

summary_test
```

    ## # A tibble: 500 × 3
    ## # Groups:   store [10]
    ##    store item  Average_MAPE_Test
    ##    <fct> <fct>             <dbl>
    ##  1 1     1                 0.801
    ##  2 1     2                 0.879
    ##  3 1     3                 0.853
    ##  4 1     4                 0.808
    ##  5 1     5                 0.792
    ##  6 1     6                 0.884
    ##  7 1     7                 0.884
    ##  8 1     8                 0.889
    ##  9 1     9                 0.877
    ## 10 1     10                0.889
    ## # … with 490 more rows
…
# Compare train and test accuracy

``` r
summary_all <- summary_train |>
  left_join(summary_test, by = c('store', 'item')) |>
  mutate(accuracy_gap = round(Average_MAPE_Train - Average_MAPE_Test , 2)) |>
  arrange(desc(accuracy_gap))

summary_all
```

    ## # A tibble: 500 × 5
    ## # Groups:   store [10]
    ##    store item  Average_MAPE_Train Average_MAPE_Test accuracy_gap
    ##    <fct> <fct>              <dbl>             <dbl>        <dbl>
    ##  1 2     28                 0.928             0.891         0.04
    ##  2 2     13                 0.928             0.900         0.03
    ##  3 2     15                 0.928             0.896         0.03
    ##  4 2     18                 0.926             0.892         0.03
    ##  5 2     22                 0.926             0.898         0.03
    ##  6 2     38                 0.926             0.894         0.03
    ##  7 2     45                 0.927             0.896         0.03
    ##  8 3     15                 0.924             0.896         0.03
    ##  9 4     15                 0.922             0.893         0.03
    ## 10 8     13                 0.925             0.897         0.03
    ## # … with 490 more rows
…
